Library\Bee\artifacts\mvdfrm\Unity.VisualScripting.Core.Editor.ref.dll_CCCBCA96875E3C2C.mvfrm
Library\Bee\artifacts\mvdfrm\Unity.VisualScripting.Core.ref.dll_DAADD097B5BFFFD5.mvfrm
Library\Bee\artifacts\mvdfrm\Unity.VisualScripting.Flow.ref.dll_21BEB0EE37C97484.mvfrm
Library\Bee\artifacts\mvdfrm\UnityEditor.TestRunner.ref.dll_16B9A1849A3B4A54.mvfrm
Library\Bee\artifacts\mvdfrm\UnityEditor.UI.ref.dll_E2A091BC59174F16.mvfrm
Library\Bee\artifacts\mvdfrm\UnityEngine.TestRunner.ref.dll_E2D7EC32C5FEA83F.mvfrm
Library\Bee\artifacts\mvdfrm\UnityEngine.UI.ref.dll_9F0668175F397781.mvfrm
Library\Bee\artifacts\mvdfrm\UnityEditor.Graphs.dll_91F2B8EA0E8AABF7.mvfrm
Library\Bee\artifacts\mvdfrm\UnityEditor.CoreModule.dll_DC72A63AD06926C5.mvfrm
Library\Bee\artifacts\mvdfrm\UnityEditor.DeviceSimulatorModule.dll_2DA64095F70D650C.mvfrm
Library\Bee\artifacts\mvdfrm\UnityEditor.DiagnosticsModule.dll_C3D0A02E603B745A.mvfrm
Library\Bee\artifacts\mvdfrm\UnityEditor.dll_5384F478EFE3E7C0.mvfrm
Library\Bee\artifacts\mvdfrm\UnityEditor.GraphViewModule.dll_3DBD0E78215890F1.mvfrm
Library\Bee\artifacts\mvdfrm\UnityEditor.PackageManagerUIModule.dll_07A8967892685FE1.mvfrm
Library\Bee\artifacts\mvdfrm\UnityEditor.QuickSearchModule.dll_4EE0213BB91270B3.mvfrm
Library\Bee\artifacts\mvdfrm\UnityEditor.SceneTemplateModule.dll_470B82FAC4621394.mvfrm
Library\Bee\artifacts\mvdfrm\UnityEditor.TextCoreFontEngineModule.dll_63CA87B889EC36A3.mvfrm
Library\Bee\artifacts\mvdfrm\UnityEditor.TextCoreTextEngineModule.dll_ABB2BE2A196FEFC1.mvfrm
Library\Bee\artifacts\mvdfrm\UnityEditor.UIBuilderModule.dll_9245BB9494110A25.mvfrm
Library\Bee\artifacts\mvdfrm\UnityEditor.UIElementsModule.dll_8E150209A1B1E1E1.mvfrm
Library\Bee\artifacts\mvdfrm\UnityEditor.UIElementsSamplesModule.dll_B5C6657452B9D89C.mvfrm
Library\Bee\artifacts\mvdfrm\UnityEditor.UIServiceModule.dll_CB37CCF77D485A3F.mvfrm
Library\Bee\artifacts\mvdfrm\UnityEditor.UnityConnectModule.dll_6A823D6BCE0437FB.mvfrm
Library\Bee\artifacts\mvdfrm\UnityEngine.AccessibilityModule.dll_79B0EE91C4D83B31.mvfrm
Library\Bee\artifacts\mvdfrm\UnityEngine.AIModule.dll_17442A44349C4E79.mvfrm
Library\Bee\artifacts\mvdfrm\UnityEngine.AndroidJNIModule.dll_0C5DEADCEAD150B7.mvfrm
Library\Bee\artifacts\mvdfrm\UnityEngine.AnimationModule.dll_0C428AA0FBB56597.mvfrm
Library\Bee\artifacts\mvdfrm\UnityEngine.ARModule.dll_D0B6EF4791B9AD42.mvfrm
Library\Bee\artifacts\mvdfrm\UnityEngine.AssetBundleModule.dll_92C9542D1B7925A5.mvfrm
Library\Bee\artifacts\mvdfrm\UnityEngine.AudioModule.dll_A252580969D508C9.mvfrm
Library\Bee\artifacts\mvdfrm\UnityEngine.ClothModule.dll_093AB50443F1E7AD.mvfrm
Library\Bee\artifacts\mvdfrm\UnityEngine.ClusterInputModule.dll_EA1EB2817F8C0AC1.mvfrm
Library\Bee\artifacts\mvdfrm\UnityEngine.ClusterRendererModule.dll_3353030766C87290.mvfrm
Library\Bee\artifacts\mvdfrm\UnityEngine.CoreModule.dll_FF93798D786E91F0.mvfrm
Library\Bee\artifacts\mvdfrm\UnityEngine.CrashReportingModule.dll_07D25695545FBB88.mvfrm
Library\Bee\artifacts\mvdfrm\UnityEngine.DirectorModule.dll_47BDB19BC49DDC0D.mvfrm
Library\Bee\artifacts\mvdfrm\UnityEngine.dll_86293B514E5774A5.mvfrm
Library\Bee\artifacts\mvdfrm\UnityEngine.DSPGraphModule.dll_4D0F130536FEAD2E.mvfrm
Library\Bee\artifacts\mvdfrm\UnityEngine.GameCenterModule.dll_36AB34F7B11241A8.mvfrm
Library\Bee\artifacts\mvdfrm\UnityEngine.GIModule.dll_AF807351D04B3693.mvfrm
Library\Bee\artifacts\mvdfrm\UnityEngine.GridModule.dll_DD04957B90C327E7.mvfrm
Library\Bee\artifacts\mvdfrm\UnityEngine.HotReloadModule.dll_8D8B48A6D6E88119.mvfrm
Library\Bee\artifacts\mvdfrm\UnityEngine.ImageConversionModule.dll_9F4500B7E8ED2A84.mvfrm
Library\Bee\artifacts\mvdfrm\UnityEngine.IMGUIModule.dll_DAB1F77030069CAA.mvfrm
Library\Bee\artifacts\mvdfrm\UnityEngine.InputLegacyModule.dll_240E6F4BB36ADB96.mvfrm
Library\Bee\artifacts\mvdfrm\UnityEngine.InputModule.dll_08C81FB9E00D2D6D.mvfrm
Library\Bee\artifacts\mvdfrm\UnityEngine.JSONSerializeModule.dll_D9C877CDC4139BBB.mvfrm
Library\Bee\artifacts\mvdfrm\UnityEngine.LocalizationModule.dll_286B7CD41707FDBA.mvfrm
Library\Bee\artifacts\mvdfrm\UnityEngine.NVIDIAModule.dll_7A2603CBE74C645C.mvfrm
Library\Bee\artifacts\mvdfrm\UnityEngine.ParticleSystemModule.dll_5AE49FE1C2714716.mvfrm
Library\Bee\artifacts\mvdfrm\UnityEngine.PerformanceReportingModule.dll_011E123C847416AF.mvfrm
Library\Bee\artifacts\mvdfrm\UnityEngine.Physics2DModule.dll_58E87A919CB25D2C.mvfrm
Library\Bee\artifacts\mvdfrm\UnityEngine.PhysicsModule.dll_78D5B1C568EE96BA.mvfrm
Library\Bee\artifacts\mvdfrm\UnityEngine.ProfilerModule.dll_7A03EAD25DF7631A.mvfrm
Library\Bee\artifacts\mvdfrm\UnityEngine.RuntimeInitializeOnLoadManagerInitializerModule.dll_EC6965BB7D5425F5.mvfrm
Library\Bee\artifacts\mvdfrm\UnityEngine.ScreenCaptureModule.dll_F3B02552D87FC81D.mvfrm
Library\Bee\artifacts\mvdfrm\UnityEngine.SharedInternalsModule.dll_23563F8D601B25D4.mvfrm
Library\Bee\artifacts\mvdfrm\UnityEngine.SpriteMaskModule.dll_1FD7A787D281D722.mvfrm
Library\Bee\artifacts\mvdfrm\UnityEngine.SpriteShapeModule.dll_AC2A8187D11B5DAF.mvfrm
Library\Bee\artifacts\mvdfrm\UnityEngine.StreamingModule.dll_C0D777F14B3D1CD5.mvfrm
Library\Bee\artifacts\mvdfrm\UnityEngine.SubstanceModule.dll_9D828C3A96901AE3.mvfrm
Library\Bee\artifacts\mvdfrm\UnityEngine.SubsystemsModule.dll_8A850DE9A0C9BF35.mvfrm
Library\Bee\artifacts\mvdfrm\UnityEngine.TerrainModule.dll_931C2D343EACDFA8.mvfrm
Library\Bee\artifacts\mvdfrm\UnityEngine.TerrainPhysicsModule.dll_5B5F48B4DBB441A3.mvfrm
Library\Bee\artifacts\mvdfrm\UnityEngine.TextCoreFontEngineModule.dll_E22A030B9CE9F56E.mvfrm
Library\Bee\artifacts\mvdfrm\UnityEngine.TextCoreTextEngineModule.dll_2A12397D2C6DAE8C.mvfrm
Library\Bee\artifacts\mvdfrm\UnityEngine.TextRenderingModule.dll_1CEF975D8FB74812.mvfrm
Library\Bee\artifacts\mvdfrm\UnityEngine.TilemapModule.dll_321894B55669C0B1.mvfrm
Library\Bee\artifacts\mvdfrm\UnityEngine.TLSModule.dll_0EFCC84D7635A90E.mvfrm
Library\Bee\artifacts\mvdfrm\UnityEngine.UIElementsModule.dll_8EC36F51A3F5FB2C.mvfrm
Library\Bee\artifacts\mvdfrm\UnityEngine.UIElementsNativeModule.dll_52224B0E03E0D003.mvfrm
Library\Bee\artifacts\mvdfrm\UnityEngine.UIModule.dll_12B7C87190E35425.mvfrm
Library\Bee\artifacts\mvdfrm\UnityEngine.UmbraModule.dll_1D270421F6FBB43C.mvfrm
Library\Bee\artifacts\mvdfrm\UnityEngine.UNETModule.dll_9239C176C57D8769.mvfrm
Library\Bee\artifacts\mvdfrm\UnityEngine.UnityAnalyticsCommonModule.dll_9C5CCF809E5CB50D.mvfrm
Library\Bee\artifacts\mvdfrm\UnityEngine.UnityAnalyticsModule.dll_7A8410AB6E989912.mvfrm
Library\Bee\artifacts\mvdfrm\UnityEngine.UnityConnectModule.dll_57E1C17AC88C38A6.mvfrm
Library\Bee\artifacts\mvdfrm\UnityEngine.UnityCurlModule.dll_3F5F2BD26BC95784.mvfrm
Library\Bee\artifacts\mvdfrm\UnityEngine.UnityTestProtocolModule.dll_71891B66ACB52DF2.mvfrm
Library\Bee\artifacts\mvdfrm\UnityEngine.UnityWebRequestAssetBundleModule.dll_EE5A599258883963.mvfrm
Library\Bee\artifacts\mvdfrm\UnityEngine.UnityWebRequestAudioModule.dll_791A661B0ADEE147.mvfrm
Library\Bee\artifacts\mvdfrm\UnityEngine.UnityWebRequestModule.dll_B0E40861F3E1C503.mvfrm
Library\Bee\artifacts\mvdfrm\UnityEngine.UnityWebRequestTextureModule.dll_C281C4DB828875FC.mvfrm
Library\Bee\artifacts\mvdfrm\UnityEngine.UnityWebRequestWWWModule.dll_F4D47ED91C2D6AF8.mvfrm
Library\Bee\artifacts\mvdfrm\UnityEngine.VehiclesModule.dll_BF80AB1B3EC7ABA8.mvfrm
Library\Bee\artifacts\mvdfrm\UnityEngine.VFXModule.dll_8FDB60BC4CA3127B.mvfrm
Library\Bee\artifacts\mvdfrm\UnityEngine.VideoModule.dll_C75BDC742C67246E.mvfrm
Library\Bee\artifacts\mvdfrm\UnityEngine.VirtualTexturingModule.dll_76AEFF7CDC8F508E.mvfrm
Library\Bee\artifacts\mvdfrm\UnityEngine.VRModule.dll_6589EEF7329DD99D.mvfrm
Library\Bee\artifacts\mvdfrm\UnityEngine.WindModule.dll_75E254B609A51059.mvfrm
Library\Bee\artifacts\mvdfrm\UnityEngine.XRModule.dll_9848B1FBBBD826FB.mvfrm
Library\Bee\artifacts\mvdfrm\Unity.Android.Gradle.dll_FFDF7B43D6EFD32D.mvfrm
Library\Bee\artifacts\mvdfrm\Unity.Android.Types.dll_BD842CA90B4E895F.mvfrm
Library\Bee\artifacts\mvdfrm\UnityEditor.Android.Extensions.dll_ECF5B76B7E34BD8D.mvfrm
Library\Bee\artifacts\mvdfrm\UnityEditor.WindowsStandalone.Extensions.dll_3DC0B2DDCF81D42B.mvfrm
Library\Bee\artifacts\mvdfrm\Unity.Plastic.Antlr3.Runtime.dll_4410F263E9B114A5.mvfrm
Library\Bee\artifacts\mvdfrm\Unity.Plastic.Newtonsoft.Json.dll_820A73B1D554E7C0.mvfrm
Library\Bee\artifacts\mvdfrm\Unity.VisualScripting.IonicZip.dll_AA9677417A931C55.mvfrm
Library\Bee\artifacts\mvdfrm\Unity.VisualScripting.YamlDotNet.dll_50357FBD179F59B7.mvfrm
Library\Bee\artifacts\mvdfrm\Unity.VisualScripting.TextureAssets.dll_E753A910D86CB7AF.mvfrm
Library\Bee\artifacts\mvdfrm\Unity.VisualScripting.Antlr3.Runtime.dll_01A2A69E486869D6.mvfrm